…
Esse tutorial apresenta análises básicas com dados categóricos no R utilizando o pacote `[sjPlot](http://www.strengejacke.de/sjPlot/index.html)` que, dentre suas várias funcionalidades, permite visualizar esse tipo de informação em tabelas cruzadas com percentuais (ou tabelas de contingência), formatadas, que podem ser utilizadas diretamente para publicações. Além disso, permite algumas personalizações e exibe estatísticas prontas sobre os dados.

> Para o tutorial, vamos utilizar uma versão tratada, para fins didáticos, dos **[microdados do **Enade de 2010**](https://github.com/gustavobrp/projeto_r_educacao/raw/main/bases/bd_enade_2010.zip)**. Nela, excluí casos com poucas respostas ou informações faltantes, modifiquei algumas variáveis para fatores e criei outras para facilitar a análise. A base de dados original pode ser acessada e baixada pelo site do **[Inep](https://www.gov.br/inep/pt-br/acesso-a-informacao/dados-abertos/microdados/enade)**.
> 

> **Observação:** Atualmente o Inep retirou o acesso público aos microdados de várias pesquisas nacionais sobre educação. Mas a base utilizada no exemplo pode ser baixada no link acima.
> 

```r
tibble(bd.enade)
```

```r
# A tibble: 223,727 x 16
   var_setor var_raca_etnia var_sexo var_regiao_curso var_estado_civil var_onde_vive   var_quant_famil~
   <fct>     <fct>          <fct>    <fct>            <fct>            <fct>           <fct>           
 1 Federal   Branca         Feminino Centro-Oeste     Casado(a)        Em casa ou apa~ Duas a quatro p~
 2 Federal   Negra          Feminino Centro-Oeste     Solteiro(a)      Em casa ou apa~ Duas a quatro p~
 3 Federal   Branca         Feminino Centro-Oeste     Casado(a)        Em casa ou apa~ Duas a quatro p~
 4 Federal   Branca         Feminino Centro-Oeste     Outros           Em casa ou apa~ Duas a quatro p~
 5 Federal   Branca         Feminino Centro-Oeste     Solteiro(a)      Em casa ou apa~ Duas a quatro p~
 6 Federal   Negra          Feminino Centro-Oeste     Casado(a)        Em casa ou apa~ Duas a quatro p~
 7 Federal   Branca         Feminino Centro-Oeste     Casado(a)        Em casa ou apa~ Duas a quatro p~
 8 Federal   Branca         Feminino Centro-Oeste     Solteiro(a)      Em casa ou apa~ Duas a quatro p~
 9 Federal   Branca         Feminino Centro-Oeste     Solteiro(a)      Em casa ou apa~ Duas a quatro p~
10 Federal   Branca         Feminino Centro-Oeste     Solteiro(a)      Em casa ou apa~ Vive sozinho    
# ... with 223,717 more rows, and 9 more variables: var_renda <fct>, var_trabalho <fct>,
#   var_sustento <fct>, var_bolsa_mensalidade <fct>, var_modalidade <fct>, var_bolsa_curso <fct>,
#   var_escolaridade_mae <fct>, var_escolaridade_pai <fct>, var_nota_geral <dbl>
```
…
