…
</aside>

<aside>
💡 **Observação:** Atualmente o Inep retirou o acesso público aos microdados de várias pesquisas nacionais sobre educação. Mas a base utilizada no exemplo pode ser baixada no link acima.

</aside>

```r
tibble(bd.enade)
```

```r
# A tibble: 223,727 x 16
   var_setor var_raca_etnia var_sexo var_regiao_curso var_estado_civil var_onde_vive   var_quant_famil~
   <fct>     <fct>          <fct>    <fct>            <fct>            <fct>           <fct>           
 1 Federal   Branca         Feminino Centro-Oeste     Casado(a)        Em casa ou apa~ Duas a quatro p~
 2 Federal   Negra          Feminino Centro-Oeste     Solteiro(a)      Em casa ou apa~ Duas a quatro p~
 3 Federal   Branca         Feminino Centro-Oeste     Casado(a)        Em casa ou apa~ Duas a quatro p~
 4 Federal   Branca         Feminino Centro-Oeste     Outros           Em casa ou apa~ Duas a quatro p~
 5 Federal   Branca         Feminino Centro-Oeste     Solteiro(a)      Em casa ou apa~ Duas a quatro p~
 6 Federal   Negra          Feminino Centro-Oeste     Casado(a)        Em casa ou apa~ Duas a quatro p~
 7 Federal   Branca         Feminino Centro-Oeste     Casado(a)        Em casa ou apa~ Duas a quatro p~
 8 Federal   Branca         Feminino Centro-Oeste     Solteiro(a)      Em casa ou apa~ Duas a quatro p~
 9 Federal   Branca         Feminino Centro-Oeste     Solteiro(a)      Em casa ou apa~ Duas a quatro p~
10 Federal   Branca         Feminino Centro-Oeste     Solteiro(a)      Em casa ou apa~ Vive sozinho    
# ... with 223,717 more rows, and 9 more variables: var_renda <fct>, var_trabalho <fct>,
#   var_sustento <fct>, var_bolsa_mensalidade <fct>, var_modalidade <fct>, var_bolsa_curso <fct>,
#   var_escolaridade_mae <fct>, var_escolaridade_pai <fct>, var_nota_geral <dbl>
```
…
